…
**Married people contribute the most and are also the largest group by count**

4. Major


```r
contribution%>%group_by(Major)%>%summarise(Count=n(),Percentage_Count=n()/1230,Total_Contribution=sum(Contributions),Percentage_Contribution=Total_Contribution/1205454,Average=mean(Contributions))%>%ungroup()%>%arrange(-Total_Contribution)
```

```
## # A tibble: 46 x 6
##    Major      Count Percentage_Count Total_Contribut~ Percentage_Contri~ Average
##    <fct>      <int>            <dbl>            <dbl>              <dbl>   <dbl>
##  1 History      135          0.110            240617.             0.200    1782.
##  2 Mathemati~     3          0.00244          172710.             0.143   57570.
##  3 Economics~    24          0.0195           104032.             0.0863   4335.
##  4 Economics     87          0.0707           101522.             0.0842   1167.
##  5 Speech (D~     7          0.00569           74895.             0.0621  10699.
##  6 Biology      115          0.0935            63365.             0.0526    551.
##  7 Political~    81          0.0659            58243.             0.0483    719.
##  8 English      123          0.1               48854.             0.0405    397.
##  9 Psychology    79          0.0642            43807.             0.0363    555.
## 10 Physics       21          0.0171            38685              0.0321   1842.
## # ... with 36 more rows
```

**History majors are the highest contributors followed by Mathematics and Econonmics**

5. Next degree


```r
contribution%>%group_by(Next.Degree)%>%summarise(Count=n(),Percentage_Count=n()/1230,Total_Contribution=sum(Contributions),Percentage_Contribution=Total_Contribution/1205454,Average=mean(Contributions))%>%ungroup()%>%arrange(-Total_Contribution)
```

```
## # A tibble: 50 x 6
##    Next.Degree Count Percentage_Count Total_Contributi~ Percentage_Cont~ Average
##    <fct>       <int>            <dbl>             <dbl>            <dbl>   <dbl>
##  1 NONE          460          0.374             341875.           0.284     743.
##  2 JD            103          0.0837            219143.           0.182    2128.
##  3 MBA            43          0.0350            148805.           0.123    3461.
##  4 PHD           100          0.0813            127989.           0.106    1280.
##  5 MS             65          0.0528             87733            0.0728   1350.
##  6 MD             48          0.0390             61961.           0.0514   1291.
##  7 MA            135          0.110              50189            0.0416    372.
##  8 LLB             2          0.00163            31342            0.0260  15671 
##  9 TC             30          0.0244             27838            0.0231    928.
## 10 ME             20          0.0163             17380            0.0144    869 
## # ... with 40 more rows
```
…
